%YAML 1.1
%TAG !u! tag:unity3d.com,2011:
--- !u!1 &478117382782453735
GameObject:
  m_ObjectHideFlags: 0
  m_CorrespondingSourceObject: {fileID: 0}
  m_PrefabInstance: {fileID: 0}
  m_PrefabAsset: {fileID: 0}
  serializedVersion: 6
  m_Component:
  - component: {fileID: 478117382782453737}
  - component: {fileID: 478117382782453734}
  m_Layer: 0
  m_Name: Wave_Light_2
  m_TagString: Untagged
  m_Icon: {fileID: 0}
  m_NavMeshLayer: 0
  m_StaticEditorFlags: 0
  m_IsActive: 1
--- !u!4 &478117382782453737
Transform:
  m_ObjectHideFlags: 0
  m_CorrespondingSourceObject: {fileID: 0}
  m_PrefabInstance: {fileID: 0}
  m_PrefabAsset: {fileID: 0}
  m_GameObject: {fileID: 478117382782453735}
  m_LocalRotation: {x: 0, y: 0, z: 0, w: 1}
  m_LocalPosition: {x: 0, y: 0, z: 0}
  m_LocalScale: {x: 1, y: 1, z: 1}
  m_Children: []
  m_Father: {fileID: 0}
  m_RootOrder: 0
  m_LocalEulerAnglesHint: {x: 0, y: 0, z: 0}
--- !u!114 &478117382782453734
MonoBehaviour:
  m_ObjectHideFlags: 0
  m_CorrespondingSourceObject: {fileID: 0}
  m_PrefabInstance: {fileID: 0}
  m_PrefabAsset: {fileID: 0}
  m_GameObject: {fileID: 478117382782453735}
  m_Enabled: 1
  m_EditorHideFlags: 0
  m_Script: {fileID: 11500000, guid: e63604ad80f242929a7d952977fcc430, type: 3}
  m_Name: 
  m_EditorClassIdentifier: 
  enemyType: {fileID: 2787996414684377818, guid: aae752eecb27a6b44a9040acff6eb9bf,
    type: 3}
  enemyCount: 5
  speed: 0.15
  wavePath:
  - {fileID: 7068717991641001823, guid: ecf7a8d25c0f38641bf9572d5207c9d7, type: 3}
  spawnDelay: 0.5
  isMirrored: 1
  wavePathMirror:
  - {fileID: 3509861694578728553, guid: 5a9fa0eac37dd244bb5cd9b0011b1a19, type: 3}
  mirrorredWaveDelay: 0
